<svg width="6" height="8" viewBox="0 0 6 8" xmlns="http://www.w3.org/2000/svg">
    <g clip-path="url(#arrow-tr2)">
        <path fill-rule="evenodd" clip-rule="evenodd"
              d="M-1.39981e-06 7.9999L0 -0.00610352L6 3.9999L-1.39981e-06 7.9999Z"/>
    </g>
    <defs>
        <clipPath id="arrow-tr2">
            <rect width="6" height="8"/>
        </clipPath>
    </defs>
</svg>
