<svg xmlns="http://www.w3.org/2000/svg" width="14" height="12" viewBox="0 0 14 12">
  <path d="M5.247,3.51v5l4.378-2.5L5.247,3.51h0ZM7,11.011s-3.644-.034-4.763-0.143C0.806,10.6.344,10.32,0.139,8.849A21.866,21.866,0,0,1,0,6.547V5.469a21.869,21.869,0,0,1,.14-2.3A1.97,1.97,0,0,1,2.1,1.155C3.708,1.036,5.385,1.01,7,1.01s3.295,0.026,4.9.145a1.97,1.97,0,0,1,1.959,2.014,21.84,21.84,0,0,1,.14,2.3V6.547a21.837,21.837,0,0,1-.14,2.3c-0.205,1.471-.667,1.748-2.1,2.019-1.12.109-4.76,0.143-4.763,0.143H7Z"/>
</svg>
