<svg width="12" height="9" viewBox="0 0 12 9" fill="none" xmlns="http://www.w3.org/2000/svg">
<g clip-path="url(#clip0)">
<path fill-rule="evenodd" clip-rule="evenodd" d="M1.716 3.14081L4.289 5.48881L10.289 0.0078125L12.008 1.94481L4.289 9.00081L0 5.07881L1.716 3.14081Z" fill="#7BC537"/>
</g>
<defs>
<clipPath id="clip0">
<rect width="12" height="9" fill="white"/>
</clipPath>
</defs>
</svg>
